{
    "editor": [
        {
            "icon": "",
            "key": "content_settings",
            "header": "Content Settings",
            "disabled": false,
            "fields": [
                {
                    "key": "app_title",
                    "type": "text",
                    "header": "App Title"
                },
                {
                    "key": "colour",
                    "type": "color",
                    "header": "backgroung_color"
                },
                {
                    "key": "cards",
                    "type": "array",
                    "header": "Cards",
                    "fields": [
                        {
                            "key": "card1",
                            "type": "array",
                            "header": "Card 1",
                            "fields": [
                                {
                                    "key": "card_image",
                                    "type": "image",
                                    "header": "Card1 Image"
                                },
                                {
                                    "key": "card_title",
                                    "type": "text",
                                    "header": "Card1 Title"
                                },
                                {
                                    "key": "card_description",
                                    "type": "text",
                                    "header": "Card1 Description"
                                }
                            ]
                        },
                        {
                            "key": "card2",
                            "type": "array",
                            "header": "Card 2",
                            "fields": [
                                {
                                    "key": "card_image",
                                    "type": "image",
                                    "header": "Card2 Image"
                                },
                                {
                                    "key": "card_title",
                                    "type": "text",
                                    "header": "Card2 Title"
                                },
                                {
                                    "key": "card_description",
                                    "type": "text",
                                    "header": "Card2 Description"
                                }
                            ]
                        },
                        {
                            "key": "card3",
                            "type": "array",
                            "header": "Card 3",
                            "fields": [
                                {
                                    "key": "card_image",
                                    "type": "image",
                                    "header": "Card3 Image"
                                },
                                {
                                    "key": "card_title",
                                    "type": "text",
                                    "header": "Card3 Title"
                                },
                                {
                                    "key": "card_description",
                                    "type": "text",
                                    "header": "Card3 Description"
                                }
                            ]
                        },
                        {
                            "key": "card4",
                            "type": "array",
                            "header": "Card 4",
                            "fields": [
                                {
                                    "key": "card_image",
                                    "type": "image",
                                    "header": "Card4 Image"
                                },
                                {
                                    "key": "card_title",
                                    "type": "text",
                                    "header": "Card4 Title"
                                },
                                {
                                    "key": "card_description",
                                    "type": "text",
                                    "header": "Card4 Description"
                                }
                            ]
                        },
                        {
                            "key": "card5",
                            "type": "array",
                            "header": "Card 5",
                            "fields": [
                                {
                                    "key": "card_image",
                                    "type": "image",
                                    "header": "Card5 Image"
                                },
                                {
                                    "key": "card_title",
                                    "type": "text",
                                    "header": "Card5 Title"
                                },
                                {
                                    "key": "card_description",
                                    "type": "text",
                                    "header": "Card5 Description"
                                }
                            ]
                        }
                    ]
                }
            ]
        }
    ],
    "config": {
        "content_settings": {
            "app_title": "Crypto Exchanges",
            "colour": "#13e0dc",
            "cards": {
                "card1": {
                    "card_image": "http://frontend.apps.playcent.com/6c10b93d67d145e0b4c445ca2c06c22a/assets/ogImage.jpg",
                    "card_title": "Binance",
                    "card_description": ""
                },
                "card2": {
                    "card_image": "http://frontend.apps.playcent.com/6c10b93d67d145e0b4c445ca2c06c22a/assets/5c8c8d7e9e56a.jpg",
                    "card_title": "OKEx",
                    "card_description": ""
                },
                "card3": {
                    "card_image": "http://frontend.apps.playcent.com/6c10b93d67d145e0b4c445ca2c06c22a/assets/HVEeWmV4_400x400.png",
                    "card_title": "Coinbase",
                    "card_description": ""
                },
                "card4": {
                    "card_image": "http://frontend.apps.playcent.com/6c10b93d67d145e0b4c445ca2c06c22a/assets/0.png",
                    "card_title": "Kraken",
                    "card_description": ""
                },
                "card5": {
                    "card_image": "http://frontend.apps.playcent.com/6c10b93d67d145e0b4c445ca2c06c22a/assets/bitmex-1280x720.png",
                    "card_title": "Bitmex",
                    "card_description": ""
                }
            }
        }
    }
}